[
  {
    "id": 9223372036854771000,
    "category": {
      "id": 4025107,
      "name": "ex non"
    },
    "name": "doggie",
    "photoUrls": [
      "id elit reprehenderit veniam eu",
      "esse aliquip et"
    ],
    "tags": [
      {
        "id": -49807206,
        "name": "v"
      },
      {
        "id": -41194891,
        "name": "elit adipisicing a"
      }
    ],
    "status": "pending"
  },
  {
    "id": 44012248,
    "category": {
      "id": -1184274,
      "name": "occaecat aute ullamco"
    },
    "name": "doggie",
    "photoUrls": [
      "adipisicing sit eu nulla",
      "cillum consequat voluptate amet aliqua"
    ],
    "tags": [
      {
        "id": 84009036,
        "name": "est in"
      },
      {
        "id": -2578425,
        "name": "ipsum esse"
      }
    ],
    "status": "pending"
  }
]